{
  "items": [
    {
      "album": {
        "album_type": "SINGLE",
        "artists": [
          {
            "external_urls": {
              "spotify": "https://open.spotify.com/artist/2IMZYfNi21MGqxopj9fWx8"
            },
            "href": "https://api.spotify.com/v1/artists/2IMZYfNi21MGqxopj9fWx8",
            "id": "2IMZYfNi21MGqxopj9fWx8",
            "name": "Rels B",
            "type": "artist",
            "uri": "spotify:artist:2IMZYfNi21MGqxopj9fWx8"
          }
        ],
        "available_markets": [
          "AD",
          "AE",
          "AR",
          "AT",
          "AU",
          "BE",
          "BG",
          "BH",
          "BO",
          "BR",
          "CA",
          "CH",
          "CL",
          "CO",
          "CR",
          "CY",
          "CZ",
          "DE",
          "DK",
          "DO",
          "DZ",
          "EC",
          "EE",
          "EG",
          "ES",
          "FI",
          "FR",
          "GB",
          "GR",
          "GT",
          "HK",
          "HN",
          "HU",
          "ID",
          "IE",
          "IL",
          "IN",
          "IS",
          "IT",
          "JO",
          "JP",
          "KW",
          "LB",
          "LI",
          "LT",
          "LU",
          "LV",
          "MA",
          "MC",
          "MT",
          "MX",
          "MY",
          "NI",
          "NL",
          "NO",
          "NZ",
          "OM",
          "PA",
          "PE",
          "PH",
          "PL",
          "PS",
          "PT",
          "PY",
          "QA",
          "RO",
          "SA",
          "SE",
          "SG",
          "SK",
          "SV",
          "TH",
          "TN",
          "TR",
          "TW",
          "US",
          "UY",
          "VN",
          "ZA"
        ],
        "external_urls": {
          "spotify": "https://open.spotify.com/album/6bCWlTPqOKwHRJ20aMPvqI"
        },
        "href": "https://api.spotify.com/v1/albums/6bCWlTPqOKwHRJ20aMPvqI",
        "id": "6bCWlTPqOKwHRJ20aMPvqI",
        "images": [
          {
            "height": 640,
            "url": "https://i.scdn.co/image/ab67616d0000b27302818ba1318e4298e6996767",
            "width": 640
          },
          {
            "height": 300,
            "url": "https://i.scdn.co/image/ab67616d00001e0202818ba1318e4298e6996767",
            "width": 300
          },
          {
            "height": 64,
            "url": "https://i.scdn.co/image/ab67616d0000485102818ba1318e4298e6996767",
            "width": 64
          }
        ],
        "name": "100 TRACKS",
        "release_date": "2022-03-03",
        "release_date_precision": "day",
        "total_tracks": 1,
        "type": "album",
        "uri": "spotify:album:6bCWlTPqOKwHRJ20aMPvqI"
      },
      "artists": [
        {
          "external_urls": {
            "spotify": "https://open.spotify.com/artist/2IMZYfNi21MGqxopj9fWx8"
          },
          "href": "https://api.spotify.com/v1/artists/2IMZYfNi21MGqxopj9fWx8",
          "id": "2IMZYfNi21MGqxopj9fWx8",
          "name": "Rels B",
          "type": "artist",
          "uri": "spotify:artist:2IMZYfNi21MGqxopj9fWx8"
        }
      ],
      "available_markets": [
        "AD",
        "AE",
        "AR",
        "AT",
        "AU",
        "BE",
        "BG",
        "BH",
        "BO",
        "BR",
        "CA",
        "CH",
        "CL",
        "CO",
        "CR",
        "CY",
        "CZ",
        "DE",
        "DK",
        "DO",
        "DZ",
        "EC",
        "EE",
        "EG",
        "ES",
        "FI",
        "FR",
        "GB",
        "GR",
        "GT",
        "HK",
        "HN",
        "HU",
        "ID",
        "IE",
        "IL",
        "IN",
        "IS",
        "IT",
        "JO",
        "JP",
        "KW",
        "LB",
        "LI",
        "LT",
        "LU",
        "LV",
        "MA",
        "MC",
        "MT",
        "MX",
        "MY",
        "NI",
        "NL",
        "NO",
        "NZ",
        "OM",
        "PA",
        "PE",
        "PH",
        "PL",
        "PS",
        "PT",
        "PY",
        "QA",
        "RO",
        "SA",
        "SE",
        "SG",
        "SK",
        "SV",
        "TH",
        "TN",
        "TR",
        "TW",
        "US",
        "UY",
        "VN",
        "ZA"
      ],
      "disc_number": 1,
      "duration_ms": 164092,
      "explicit": true,
      "external_ids": {
        "isrc": "QM4TW2274294"
      },
      "external_urls": {
        "spotify": "https://open.spotify.com/track/4Aljhc4Fbs5HnkvqMD50U0"
      },
      "href": "https://api.spotify.com/v1/tracks/4Aljhc4Fbs5HnkvqMD50U0",
      "id": "4Aljhc4Fbs5HnkvqMD50U0",
      "is_local": false,
      "name": "100 TRACKS",
      "popularity": 65,
      "preview_url": "https://p.scdn.co/mp3-preview/f3aa0a1fcf601f5101f96463f1513b21bcb31a23?cid=774b29d4f13844c495f206cafdad9c86",
      "track_number": 1,
      "type": "track",
      "uri": "spotify:track:4Aljhc4Fbs5HnkvqMD50U0"
    },
    {
      "album": {
        "album_type": "ALBUM",
        "artists": [
          {
            "external_urls": {
              "spotify": "https://open.spotify.com/artist/5XJDexmWFLWOkjOEjOVX3e"
            },
            "href": "https://api.spotify.com/v1/artists/5XJDexmWFLWOkjOEjOVX3e",
            "id": "5XJDexmWFLWOkjOEjOVX3e",
            "name": "Eladio Carrion",
            "type": "artist",
            "uri": "spotify:artist:5XJDexmWFLWOkjOEjOVX3e"
          }
        ],
        "available_markets": [
          "AD",
          "AE",
          "AR",
          "AT",
          "AU",
          "BE",
          "BG",
          "BH",
          "BO",
          "BR",
          "CA",
          "CH",
          "CL",
          "CO",
          "CR",
          "CY",
          "CZ",
          "DE",
          "DK",
          "DO",
          "DZ",
          "EC",
          "EE",
          "EG",
          "ES",
          "FI",
          "FR",
          "GB",
          "GR",
          "GT",
          "HK",
          "HN",
          "HU",
          "ID",
          "IE",
          "IL",
          "IN",
          "IS",
          "IT",
          "JO",
          "JP",
          "KW",
          "LB",
          "LI",
          "LT",
          "LU",
          "LV",
          "MA",
          "MC",
          "MT",
          "MX",
          "MY",
          "NI",
          "NL",
          "NO",
          "NZ",
          "OM",
          "PA",
          "PE",
          "PH",
          "PL",
          "PS",
          "PT",
          "PY",
          "QA",
          "RO",
          "SA",
          "SE",
          "SG",
          "SK",
          "SV",
          "TH",
          "TN",
          "TR",
          "TW",
          "US",
          "UY",
          "VN",
          "ZA"
        ],
        "external_urls": {
          "spotify": "https://open.spotify.com/album/4JaYe7HIddzNaF3rUgJzHI"
        },
        "href": "https://api.spotify.com/v1/albums/4JaYe7HIddzNaF3rUgJzHI",
        "id": "4JaYe7HIddzNaF3rUgJzHI",
        "images": [
          {
            "height": 640,
            "url": "https://i.scdn.co/image/ab67616d0000b27302b1465a8e6b21d3308c18f4",
            "width": 640
          },
          {
            "height": 300,
            "url": "https://i.scdn.co/image/ab67616d00001e0202b1465a8e6b21d3308c18f4",
            "width": 300
          },
          {
            "height": 64,
            "url": "https://i.scdn.co/image/ab67616d0000485102b1465a8e6b21d3308c18f4",
            "width": 64
          }
        ],
        "name": "Sauce Boyz 2",
        "release_date": "2021-12-02",
        "release_date_precision": "day",
        "total_tracks": 22,
        "type": "album",
        "uri": "spotify:album:4JaYe7HIddzNaF3rUgJzHI"
      },
      "artists": [
        {
          "external_urls": {
            "spotify": "https://open.spotify.com/artist/5XJDexmWFLWOkjOEjOVX3e"
          },
          "href": "https://api.spotify.com/v1/artists/5XJDexmWFLWOkjOEjOVX3e",
          "id": "5XJDexmWFLWOkjOEjOVX3e",
          "name": "Eladio Carrion",
          "type": "artist",
          "uri": "spotify:artist:5XJDexmWFLWOkjOEjOVX3e"
        },
        {
          "external_urls": {
            "spotify": "https://open.spotify.com/artist/2IMZYfNi21MGqxopj9fWx8"
          },
          "href": "https://api.spotify.com/v1/artists/2IMZYfNi21MGqxopj9fWx8",
          "id": "2IMZYfNi21MGqxopj9fWx8",
          "name": "Rels B",
          "type": "artist",
          "uri": "spotify:artist:2IMZYfNi21MGqxopj9fWx8"
        }
      ],
      "available_markets": [
        "AD",
        "AE",
        "AR",
        "AT",
        "AU",
        "BE",
        "BG",
        "BH",
        "BO",
        "BR",
        "CA",
        "CH",
        "CL",
        "CO",
        "CR",
        "CY",
        "CZ",
        "DE",
        "DK",
        "DO",
        "DZ",
        "EC",
        "EE",
        "EG",
        "ES",
        "FI",
        "FR",
        "GB",
        "GR",
        "GT",
        "HK",
        "HN",
        "HU",
        "ID",
        "IE",
        "IL",
        "IN",
        "IS",
        "IT",
        "JO",
        "JP",
        "KW",
        "LB",
        "LI",
        "LT",
        "LU",
        "LV",
        "MA",
        "MC",
        "MT",
        "MX",
        "MY",
        "NI",
        "NL",
        "NO",
        "NZ",
        "OM",
        "PA",
        "PE",
        "PH",
        "PL",
        "PS",
        "PT",
        "PY",
        "QA",
        "RO",
        "SA",
        "SE",
        "SG",
        "SK",
        "SV",
        "TH",
        "TN",
        "TR",
        "TW",
        "US",
        "UY",
        "VN",
        "ZA"
      ],
      "disc_number": 1,
      "duration_ms": 170078,
      "explicit": true,
      "external_ids": {
        "isrc": "QMDA72165831"
      },
      "external_urls": {
        "spotify": "https://open.spotify.com/track/1Sym1HsTqsa2pYKhYL1j15"
      },
      "href": "https://api.spotify.com/v1/tracks/1Sym1HsTqsa2pYKhYL1j15",
      "id": "1Sym1HsTqsa2pYKhYL1j15",
      "is_local": false,
      "name": "Me Gustas Natural",
      "popularity": 75,
      "preview_url": "https://p.scdn.co/mp3-preview/2c7f8635a6ac436a0a060ef3f93ed2b2619566d9?cid=774b29d4f13844c495f206cafdad9c86",
      "track_number": 7,
      "type": "track",
      "uri": "spotify:track:1Sym1HsTqsa2pYKhYL1j15"
    },
    {
      "album": {
        "album_type": "ALBUM",
        "artists": [
          {
            "external_urls": {
              "spotify": "https://open.spotify.com/artist/5XJDexmWFLWOkjOEjOVX3e"
            },
            "href": "https://api.spotify.com/v1/artists/5XJDexmWFLWOkjOEjOVX3e",
            "id": "5XJDexmWFLWOkjOEjOVX3e",
            "name": "Eladio Carrion",
            "type": "artist",
            "uri": "spotify:artist:5XJDexmWFLWOkjOEjOVX3e"
          }
        ],
        "available_markets": [
          "AD",
          "AE",
          "AR",
          "AT",
          "AU",
          "BE",
          "BG",
          "BH",
          "BO",
          "BR",
          "CA",
          "CH",
          "CL",
          "CO",
          "CR",
          "CY",
          "CZ",
          "DE",
          "DK",
          "DO",
          "DZ",
          "EC",
          "EE",
          "EG",
          "ES",
          "FI",
          "FR",
          "GB",
          "GR",
          "GT",
          "HK",
          "HN",
          "HU",
          "ID",
          "IE",
          "IL",
          "IN",
          "IS",
          "IT",
          "JO",
          "JP",
          "KW",
          "LB",
          "LI",
          "LT",
          "LU",
          "LV",
          "MA",
          "MC",
          "MT",
          "MX",
          "MY",
          "NI",
          "NL",
          "NO",
          "NZ",
          "OM",
          "PA",
          "PE",
          "PH",
          "PL",
          "PS",
          "PT",
          "PY",
          "QA",
          "RO",
          "SA",
          "SE",
          "SG",
          "SK",
          "SV",
          "TH",
          "TN",
          "TR",
          "TW",
          "US",
          "UY",
          "VN",
          "ZA"
        ],
        "external_urls": {
          "spotify": "https://open.spotify.com/album/4JaYe7HIddzNaF3rUgJzHI"
        },
        "href": "https://api.spotify.com/v1/albums/4JaYe7HIddzNaF3rUgJzHI",
        "id": "4JaYe7HIddzNaF3rUgJzHI",
        "images": [
          {
            "height": 640,
            "url": "https://i.scdn.co/image/ab67616d0000b27302b1465a8e6b21d3308c18f4",
            "width": 640
          },
          {
            "height": 300,
            "url": "https://i.scdn.co/image/ab67616d00001e0202b1465a8e6b21d3308c18f4",
            "width": 300
          },
          {
            "height": 64,
            "url": "https://i.scdn.co/image/ab67616d0000485102b1465a8e6b21d3308c18f4",
            "width": 64
          }
        ],
        "name": "Sauce Boyz 2",
        "release_date": "2021-12-02",
        "release_date_precision": "day",
        "total_tracks": 22,
        "type": "album",
        "uri": "spotify:album:4JaYe7HIddzNaF3rUgJzHI"
      },
      "artists": [
        {
          "external_urls": {
            "spotify": "https://open.spotify.com/artist/5XJDexmWFLWOkjOEjOVX3e"
          },
          "href": "https://api.spotify.com/v1/artists/5XJDexmWFLWOkjOEjOVX3e",
          "id": "5XJDexmWFLWOkjOEjOVX3e",
          "name": "Eladio Carrion",
          "type": "artist",
          "uri": "spotify:artist:5XJDexmWFLWOkjOEjOVX3e"
        }
      ],
      "available_markets": [
        "AD",
        "AE",
        "AR",
        "AT",
        "AU",
        "BE",
        "BG",
        "BH",
        "BO",
        "BR",
        "CA",
        "CH",
        "CL",
        "CO",
        "CR",
        "CY",
        "CZ",
        "DE",
        "DK",
        "DO",
        "DZ",
        "EC",
        "EE",
        "EG",
        "ES",
        "FI",
        "FR",
        "GB",
        "GR",
        "GT",
        "HK",
        "HN",
        "HU",
        "ID",
        "IE",
        "IL",
        "IN",
        "IS",
        "IT",
        "JO",
        "JP",
        "KW",
        "LB",
        "LI",
        "LT",
        "LU",
        "LV",
        "MA",
        "MC",
        "MT",
        "MX",
        "MY",
        "NI",
        "NL",
        "NO",
        "NZ",
        "OM",
        "PA",
        "PE",
        "PH",
        "PL",
        "PS",
        "PT",
        "PY",
        "QA",
        "RO",
        "SA",
        "SE",
        "SG",
        "SK",
        "SV",
        "TH",
        "TN",
        "TR",
        "TW",
        "US",
        "UY",
        "VN",
        "ZA"
      ],
      "disc_number": 1,
      "duration_ms": 181500,
      "explicit": true,
      "external_ids": {
        "isrc": "QMDA72165822"
      },
      "external_urls": {
        "spotify": "https://open.spotify.com/track/7iGX6Xdi2EnYqBqvzEVEVC"
      },
      "href": "https://api.spotify.com/v1/tracks/7iGX6Xdi2EnYqBqvzEVEVC",
      "id": "7iGX6Xdi2EnYqBqvzEVEVC",
      "is_local": false,
      "name": "Par de Tenis",
      "popularity": 60,
      "preview_url": "https://p.scdn.co/mp3-preview/dbaf1d37c5d42fd562fca670750c38cb4bd4cf1c?cid=774b29d4f13844c495f206cafdad9c86",
      "track_number": 1,
      "type": "track",
      "uri": "spotify:track:7iGX6Xdi2EnYqBqvzEVEVC"
    },
    {
      "album": {
        "album_type": "ALBUM",
        "artists": [
          {
            "external_urls": {
              "spotify": "https://open.spotify.com/artist/5XJDexmWFLWOkjOEjOVX3e"
            },
            "href": "https://api.spotify.com/v1/artists/5XJDexmWFLWOkjOEjOVX3e",
            "id": "5XJDexmWFLWOkjOEjOVX3e",
            "name": "Eladio Carrion",
            "type": "artist",
            "uri": "spotify:artist:5XJDexmWFLWOkjOEjOVX3e"
          }
        ],
        "available_markets": [
          "AD",
          "AE",
          "AR",
          "AT",
          "AU",
          "BE",
          "BG",
          "BH",
          "BO",
          "BR",
          "CA",
          "CH",
          "CL",
          "CO",
          "CR",
          "CY",
          "CZ",
          "DE",
          "DK",
          "DO",
          "DZ",
          "EC",
          "EE",
          "EG",
          "ES",
          "FI",
          "FR",
          "GB",
          "GR",
          "GT",
          "HK",
          "HN",
          "HU",
          "ID",
          "IE",
          "IL",
          "IN",
          "IS",
          "IT",
          "JO",
          "JP",
          "KW",
          "LB",
          "LI",
          "LT",
          "LU",
          "LV",
          "MA",
          "MC",
          "MT",
          "MX",
          "MY",
          "NI",
          "NL",
          "NO",
          "NZ",
          "OM",
          "PA",
          "PE",
          "PH",
          "PL",
          "PS",
          "PT",
          "PY",
          "QA",
          "RO",
          "SA",
          "SE",
          "SG",
          "SK",
          "SV",
          "TH",
          "TN",
          "TR",
          "TW",
          "US",
          "UY",
          "VN",
          "ZA"
        ],
        "external_urls": {
          "spotify": "https://open.spotify.com/album/4JaYe7HIddzNaF3rUgJzHI"
        },
        "href": "https://api.spotify.com/v1/albums/4JaYe7HIddzNaF3rUgJzHI",
        "id": "4JaYe7HIddzNaF3rUgJzHI",
        "images": [
          {
            "height": 640,
            "url": "https://i.scdn.co/image/ab67616d0000b27302b1465a8e6b21d3308c18f4",
            "width": 640
          },
          {
            "height": 300,
            "url": "https://i.scdn.co/image/ab67616d00001e0202b1465a8e6b21d3308c18f4",
            "width": 300
          },
          {
            "height": 64,
            "url": "https://i.scdn.co/image/ab67616d0000485102b1465a8e6b21d3308c18f4",
            "width": 64
          }
        ],
        "name": "Sauce Boyz 2",
        "release_date": "2021-12-02",
        "release_date_precision": "day",
        "total_tracks": 22,
        "type": "album",
        "uri": "spotify:album:4JaYe7HIddzNaF3rUgJzHI"
      },
      "artists": [
        {
          "external_urls": {
            "spotify": "https://open.spotify.com/artist/5XJDexmWFLWOkjOEjOVX3e"
          },
          "href": "https://api.spotify.com/v1/artists/5XJDexmWFLWOkjOEjOVX3e",
          "id": "5XJDexmWFLWOkjOEjOVX3e",
          "name": "Eladio Carrion",
          "type": "artist",
          "uri": "spotify:artist:5XJDexmWFLWOkjOEjOVX3e"
        }
      ],
      "available_markets": [
        "AD",
        "AE",
        "AR",
        "AT",
        "AU",
        "BE",
        "BG",
        "BH",
        "BO",
        "BR",
        "CA",
        "CH",
        "CL",
        "CO",
        "CR",
        "CY",
        "CZ",
        "DE",
        "DK",
        "DO",
        "DZ",
        "EC",
        "EE",
        "EG",
        "ES",
        "FI",
        "FR",
        "GB",
        "GR",
        "GT",
        "HK",
        "HN",
        "HU",
        "ID",
        "IE",
        "IL",
        "IN",
        "IS",
        "IT",
        "JO",
        "JP",
        "KW",
        "LB",
        "LI",
        "LT",
        "LU",
        "LV",
        "MA",
        "MC",
        "MT",
        "MX",
        "MY",
        "NI",
        "NL",
        "NO",
        "NZ",
        "OM",
        "PA",
        "PE",
        "PH",
        "PL",
        "PS",
        "PT",
        "PY",
        "QA",
        "RO",
        "SA",
        "SE",
        "SG",
        "SK",
        "SV",
        "TH",
        "TN",
        "TR",
        "TW",
        "US",
        "UY",
        "VN",
        "ZA"
      ],
      "disc_number": 1,
      "duration_ms": 155000,
      "explicit": true,
      "external_ids": {
        "isrc": "QMDA72165826"
      },
      "external_urls": {
        "spotify": "https://open.spotify.com/track/2bEjeBM3MVspWXXbor9H32"
      },
      "href": "https://api.spotify.com/v1/tracks/2bEjeBM3MVspWXXbor9H32",
      "id": "2bEjeBM3MVspWXXbor9H32",
      "is_local": false,
      "name": "Fuego",
      "popularity": 57,
      "preview_url": "https://p.scdn.co/mp3-preview/3e89a66d11980438c95ccffec4f700a57aa2a094?cid=774b29d4f13844c495f206cafdad9c86",
      "track_number": 5,
      "type": "track",
      "uri": "spotify:track:2bEjeBM3MVspWXXbor9H32"
    },
    {
      "album": {
        "album_type": "SINGLE",
        "artists": [
          {
            "external_urls": {
              "spotify": "https://open.spotify.com/artist/52iwsT98xCoGgiGntTiR7K"
            },
            "href": "https://api.spotify.com/v1/artists/52iwsT98xCoGgiGntTiR7K",
            "id": "52iwsT98xCoGgiGntTiR7K",
            "name": "Quevedo",
            "type": "artist",
            "uri": "spotify:artist:52iwsT98xCoGgiGntTiR7K"
          }
        ],
        "available_markets": [
          "AD",
          "AE",
          "AR",
          "AT",
          "AU",
          "BE",
          "BG",
          "BH",
          "BO",
          "BR",
          "CA",
          "CH",
          "CL",
          "CO",
          "CR",
          "CY",
          "CZ",
          "DE",
          "DK",
          "DO",
          "DZ",
          "EC",
          "EE",
          "EG",
          "ES",
          "FI",
          "FR",
          "GB",
          "GR",
          "GT",
          "HK",
          "HN",
          "HU",
          "ID",
          "IE",
          "IL",
          "IN",
          "IS",
          "IT",
          "JO",
          "JP",
          "KW",
          "LB",
          "LI",
          "LT",
          "LU",
          "LV",
          "MA",
          "MC",
          "MT",
          "MX",
          "MY",
          "NI",
          "NL",
          "NO",
          "NZ",
          "OM",
          "PA",
          "PE",
          "PH",
          "PL",
          "PS",
          "PT",
          "PY",
          "QA",
          "RO",
          "SA",
          "SE",
          "SG",
          "SK",
          "SV",
          "TH",
          "TN",
          "TR",
          "TW",
          "US",
          "UY",
          "VN",
          "ZA"
        ],
        "external_urls": {
          "spotify": "https://open.spotify.com/album/2G1SgkA5PDEdKl0iAZ7MWP"
        },
        "href": "https://api.spotify.com/v1/albums/2G1SgkA5PDEdKl0iAZ7MWP",
        "id": "2G1SgkA5PDEdKl0iAZ7MWP",
        "images": [
          {
            "height": 640,
            "url": "https://i.scdn.co/image/ab67616d0000b273a81f8731843beeb34eac7f68",
            "width": 640
          },
          {
            "height": 300,
            "url": "https://i.scdn.co/image/ab67616d00001e02a81f8731843beeb34eac7f68",
            "width": 300
          },
          {
            "height": 64,
            "url": "https://i.scdn.co/image/ab67616d00004851a81f8731843beeb34eac7f68",
            "width": 64
          }
        ],
        "name": "Nonstop",
        "release_date": "2022-03-04",
        "release_date_precision": "day",
        "total_tracks": 1,
        "type": "album",
        "uri": "spotify:album:2G1SgkA5PDEdKl0iAZ7MWP"
      },
      "artists": [
        {
          "external_urls": {
            "spotify": "https://open.spotify.com/artist/52iwsT98xCoGgiGntTiR7K"
          },
          "href": "https://api.spotify.com/v1/artists/52iwsT98xCoGgiGntTiR7K",
          "id": "52iwsT98xCoGgiGntTiR7K",
          "name": "Quevedo",
          "type": "artist",
          "uri": "spotify:artist:52iwsT98xCoGgiGntTiR7K"
        }
      ],
      "available_markets": [
        "AD",
        "AE",
        "AR",
        "AT",
        "AU",
        "BE",
        "BG",
        "BH",
        "BO",
        "BR",
        "CA",
        "CH",
        "CL",
        "CO",
        "CR",
        "CY",
        "CZ",
        "DE",
        "DK",
        "DO",
        "DZ",
        "EC",
        "EE",
        "EG",
        "ES",
        "FI",
        "FR",
        "GB",
        "GR",
        "GT",
        "HK",
        "HN",
        "HU",
        "ID",
        "IE",
        "IL",
        "IN",
        "IS",
        "IT",
        "JO",
        "JP",
        "KW",
        "LB",
        "LI",
        "LT",
        "LU",
        "LV",
        "MA",
        "MC",
        "MT",
        "MX",
        "MY",
        "NI",
        "NL",
        "NO",
        "NZ",
        "OM",
        "PA",
        "PE",
        "PH",
        "PL",
        "PS",
        "PT",
        "PY",
        "QA",
        "RO",
        "SA",
        "SE",
        "SG",
        "SK",
        "SV",
        "TH",
        "TN",
        "TR",
        "TW",
        "US",
        "UY",
        "VN",
        "ZA"
      ],
      "disc_number": 1,
      "duration_ms": 229658,
      "explicit": false,
      "external_ids": {
        "isrc": "ZZOPM2223571"
      },
      "external_urls": {
        "spotify": "https://open.spotify.com/track/7ANJlQ67bYtNz0rNUFL0E2"
      },
      "href": "https://api.spotify.com/v1/tracks/7ANJlQ67bYtNz0rNUFL0E2",
      "id": "7ANJlQ67bYtNz0rNUFL0E2",
      "is_local": false,
      "name": "Nonstop",
      "popularity": 69,
      "preview_url": "https://p.scdn.co/mp3-preview/4b0a8698190b99c246ab49a07142cad5d6f6d3ed?cid=774b29d4f13844c495f206cafdad9c86",
      "track_number": 1,
      "type": "track",
      "uri": "spotify:track:7ANJlQ67bYtNz0rNUFL0E2"
    }
  ],
  "total": 50,
  "limit": 5,
  "offset": 5,
  "href": "https://api.spotify.com/v1/me/top/tracks?limit=5&offset=5",
  "previous": "https://api.spotify.com/v1/me/top/tracks?limit=5&offset=0",
  "next": "https://api.spotify.com/v1/me/top/tracks?limit=5&offset=10"
}
